…
# object to decode and the key

tbl <- tibble(CODE = sample(letters[1:3], 1e+06, replace = TRUE))

key <- tribble(~CODE,   ~FRUIT, 
                 "a",  "apple", 
                 "b", "banana", 
                 "c",  "cherry"
               )

# Alternative One: dplyr::recode (what I used above basically)

mutate(tbl, FRUIT = recode(CODE, a = "apple", b = "banana", c = "cherry")) 
#> # A tibble: 1,000,000 x 2
#>     CODE  FRUIT
#>    <chr>  <chr>
#>  1     c cherry
#>  2     b banana
#>  3     a  apple
#>  4     b banana
#>  5     c cherry
#>  6     c cherry
#>  7     b banana
#>  8     c cherry
#>  9     a  apple
#> 10     a  apple
#> # ... with 999,990 more rows

# Alternative Two: named vector

# create a named vector from the key object and use it to recode
named_vector <- 
    key %>% 
    pmap(~set_names(..2, ..1)) %>% 
    unlist()

mutate(tbl, FRUIT = named_vector[CODE])
#> # A tibble: 1,000,000 x 2
#>     CODE  FRUIT
#>    <chr>  <chr>
#>  1     c cherry
#>  2     b banana
#>  3     a  apple
#>  4     b banana
#>  5     c cherry
#>  6     c cherry
#>  7     b banana
#>  8     c cherry
#>  9     a  apple
#> 10     a  apple
#> # ... with 999,990 more rows
…
