Naive Bayes Classifier
…
##  int [1:9340] 2686 7362 3820 8245 8781 426 4930 8329 5146 4261 ...

#Append the vector as a new column to "comments_rawVERB" with name "randomizer"
#Sort rows of dataframe according to "randomizer" column using dplyer 'arrange' function. 
comments_rawVERB$randomizer <- c(vector)
comments_rawVERB_R <-comments_rawVERB %>% arrange(randomizer)
print(comments_rawVERB_R)

## # A tibble: 9,340 x 4
##    subject    structure text                                    randomizer
##    <fct>      <fct>     <chr>                                        <int>
##  1 3_technic… 4_specif… The commitment pulse occurs during the…          1
##  2 2_writing  2_copyed… This is not a scientific term                    2
##  3 3_technic… 4_specif… Another potential reason could be erro…          3
##  4 3_technic… 4_specif… I would rather focus on improving the …          4
##  5 3_technic… 4_specif… What is the stimuli to open Ca++ chann…          5
##  6 3_technic… 2_copyed… Try something like, “The average R:S r…          6
##  7 2_writing  4_specif… This goes in methods, but why’d you us…          7
##  8 2_writing  4_specif… Instead of saying that the obtained re…          8
##  9 3_technic… 2_copyed… Just refer to the study, not the autho…          9
## 10 2_writing  1_pointer ?                                               10
## # ... with 9,330 more rows
…
